-------------------------------------------------------------------------------
Test set: com.example.web.ToDoControllerTest
-------------------------------------------------------------------------------
Tests run: 11, Failures: 0, Errors: 0, Skipped: 0, Time elapsed: 8.687 sec - in com.example.web.ToDoControllerTest
