-------------------------------------------------------------------------------
Test set: com.crud.service.TankServiceImplTest
-------------------------------------------------------------------------------
Tests run: 5, Failures: 0, Errors: 0, Skipped: 0, Time elapsed: 0.922 sec - in com.crud.service.TankServiceImplTest
