-------------------------------------------------------------------------------
Test set: com.crud.service.ToDoServiceTest
-------------------------------------------------------------------------------
Tests run: 4, Failures: 0, Errors: 0, Skipped: 0, Time elapsed: 0.718 sec - in com.crud.service.ToDoServiceTest
